%YAML 1.1
%TAG !u! tag:unity3d.com,2011:
--- !u!1 &3560750891141087088
GameObject:
  m_ObjectHideFlags: 0
  m_CorrespondingSourceObject: {fileID: 0}
  m_PrefabInstance: {fileID: 0}
  m_PrefabAsset: {fileID: 0}
  serializedVersion: 6
  m_Component:
  - component: {fileID: 3560750891141087089}
  - component: {fileID: 3560750891141087090}
  - component: {fileID: 3560750891141087091}
  m_Layer: 0
  m_Name: Player
  m_TagString: Untagged
  m_Icon: {fileID: 0}
  m_NavMeshLayer: 0
  m_StaticEditorFlags: 0
  m_IsActive: 1
--- !u!4 &3560750891141087089
Transform:
  m_ObjectHideFlags: 0
  m_CorrespondingSourceObject: {fileID: 0}
  m_PrefabInstance: {fileID: 0}
  m_PrefabAsset: {fileID: 0}
  m_GameObject: {fileID: 3560750891141087088}
  m_LocalRotation: {x: 0, y: 0, z: 0, w: 1}
  m_LocalPosition: {x: 0, y: 0, z: 0}
  m_LocalScale: {x: 1, y: 1, z: 1}
  m_Children: []
  m_Father: {fileID: 0}
  m_RootOrder: 0
  m_LocalEulerAnglesHint: {x: 0, y: 0, z: 0}
--- !u!114 &3560750891141087090
MonoBehaviour:
  m_ObjectHideFlags: 0
  m_CorrespondingSourceObject: {fileID: 0}
  m_PrefabInstance: {fileID: 0}
  m_PrefabAsset: {fileID: 0}
  m_GameObject: {fileID: 3560750891141087088}
  m_Enabled: 0
  m_EditorHideFlags: 0
  m_Script: {fileID: 11500000, guid: e78fc299446adc64eaf6f3dbf9938e5a, type: 3}
  m_Name: 
  m_EditorClassIdentifier: 
--- !u!114 &3560750891141087091
MonoBehaviour:
  m_ObjectHideFlags: 0
  m_CorrespondingSourceObject: {fileID: 0}
  m_PrefabInstance: {fileID: 0}
  m_PrefabAsset: {fileID: 0}
  m_GameObject: {fileID: 3560750891141087088}
  m_Enabled: 1
  m_EditorHideFlags: 0
  m_Script: {fileID: 11500000, guid: c72e55ea0eeb0fc4484e22a1e45b82a1, type: 3}
  m_Name: 
  m_EditorClassIdentifier: 
  HUD: {fileID: 0}
  PlayerInput: {fileID: 3560750891141087090}
  Character: {fileID: 0}
  WeaponPrefabs:
  - {fileID: 8003264369893179409, guid: 3e8a561672f594743b6993e99ff87ce4, type: 3}
  - {fileID: 8003264369893179409, guid: 4d703966a6cb90c43bfe4eaa3f4ea43c, type: 3}
  - {fileID: 4099453366540186014, guid: bb7ef19d0137869428d145a7224faa05, type: 3}
  - {fileID: 8003264369893179409, guid: 3d5004420834a794cac83372f80a9b27, type: 3}
  - {fileID: 8003264369893179409, guid: 81c51dda4ecb2fb4ca4f4697d83ff084, type: 3}
